# rmax, e=
8 -0.499976


# r, Fe(e,r), exact
0 0 0
0.125 0.110198 0.110312
0.25 0.194549 0.1947
0.375 0.257565 0.257733
0.5 0.30309 0.303265
0.625 0.334362 0.334538
0.75 0.354102 0.354275
0.875 0.364586 0.364754
1 0.367716 0.367879
1.125 0.365076 0.365234
1.25 0.357985 0.358131
1.375 0.347513 0.347654
1.5 0.334558 0.334695
1.625 0.319849 0.319981
1.75 0.303975 0.304104
1.875 0.287414 0.287541
2 0.270546 0.270671
2.125 0.253672 0.253795
2.25 0.237026 0.237148
2.375 0.220788 0.220909
2.5 0.205092 0.205212
2.625 0.190034 0.190154
2.75 0.175682 0.175802
2.875 0.162078 0.162196
3 0.149244 0.149361
3.125 0.137186 0.137303
3.25 0.1259 0.126016
3.375 0.115369 0.115486
3.5 0.105573 0.105691
3.625 0.0964825 0.096603
3.75 0.0880676 0.0881915
3.875 0.0802945 0.0804231
4 0.073128 0.0732626
4.125 0.0665327 0.0666744
4.25 0.0604728 0.060623
4.375 0.0549127 0.0550731
4.5 0.0498179 0.0499905
4.625 0.0451561 0.0453419
4.75 0.0408939 0.0410956
4.875 0.0370022 0.0372211
5 0.0334507 0.0336897
5.125 0.0302134 0.0304744
5.25 0.0272635 0.0275495
5.375 0.024577 0.0248912
5.5 0.0221318 0.0224772
5.625 0.0199066 0.0202869
5.75 0.0178818 0.018301
5.875 0.0160392 0.0165017
6 0.014362 0.0148725
6.125 0.0128346 0.0133984
6.25 0.0114416 0.0120653
6.375 0.0101698 0.0108606
6.5 0.00900812 0.00977235
6.625 0.00794279 0.00878992
6.75 0.00696481 0.00790344
6.875 0.00606274 0.00710392
7 0.00522915 0.00638317
7.125 0.00445197 0.00573372
7.25 0.00372626 0.00514876
7.375 0.0030438 0.00462211
7.5 0.00239373 0.00414813
7.625 0.00177165 0.00372173
7.75 0.00117066 0.00333825
7.875 0.000583855 0.00299352
8 4.35262e-06 0.0026837


