\relax 
\@writefile{toc}{\contentsline {section}{\numberline {1}The implementation}{1}\protected@file@percent }
\newlabel{eq:e_x}{{1}{1}}
\@writefile{toc}{\contentsline {section}{\numberline {2}Figures}{1}\protected@file@percent }
\@writefile{lof}{\contentsline {figure}{\numberline {1}{\ignorespaces The plot from -5 to 5 for the exponential function implemented by the quick-and-dirty way (\textup  {\hbox {\mathsurround \z@ \normalfont  (\ignorespaces 1\hbox {}\unskip \@@italiccorr )}}) and the exponential function from math.h.}}{2}\protected@file@percent }
\newlabel{fig:pyxplot}{{1}{2}}
